\relax 
\providecommand\hyper@newdestlabel[2]{}
\providecommand*\new@tpo@label[2]{}
\providecommand\HyperFirstAtBeginDocument{\AtBeginDocument}
\HyperFirstAtBeginDocument{\ifx\hyper@anchor\@undefined
\global\let\oldcontentsline\contentsline
\gdef\contentsline#1#2#3#4{\oldcontentsline{#1}{#2}{#3}}
\global\let\oldnewlabel\newlabel
\gdef\newlabel#1#2{\newlabelxx{#1}#2}
\gdef\newlabelxx#1#2#3#4#5#6{\oldnewlabel{#1}{{#2}{#3}}}
\AtEndDocument{\ifx\hyper@anchor\@undefined
\let\contentsline\oldcontentsline
\let\newlabel\oldnewlabel
\fi}
\fi}
\global\let\hyper@last\relax 
\gdef\HyperFirstAtBeginDocument#1{#1}
\providecommand*\HyPL@Entry[1]{}
\catcode `"\active 
\HyPL@Entry{0<</S/D>>}
\selectlanguage *{english}
\@writefile{toc}{\selectlanguage *{english}}
\@writefile{lof}{\selectlanguage *{english}}
\@writefile{lot}{\selectlanguage *{english}}
\@writefile{toc}{\contentsline {chapter}{\nonumberline Introduction}{13}{chapter*.2}\protected@file@percent }
\@writefile{lof}{\addvspace {10\p@ }}
\@writefile{lot}{\addvspace {10\p@ }}
\@writefile{lol}{\addvspace {10\p@ }}
\citation{qOrig}
\citation{char}
\citation{qRescale}
\citation{char}
\citation{qOrig}
\citation{char}
\citation{dfs}
\citation{q6}
\citation{q6val}
\@writefile{toc}{\contentsline {chapter}{\numberline {1}State of the art}{15}{chapter.1}\protected@file@percent }
\@writefile{lof}{\addvspace {10\p@ }}
\@writefile{lot}{\addvspace {10\p@ }}
\@writefile{lol}{\addvspace {10\p@ }}
\citation{trian}
\citation{simplex}
\citation{delaunay}
\citation{monteCarlo}
\@writefile{toc}{\contentsline {chapter}{\numberline {2}Theory}{17}{chapter.2}\protected@file@percent }
\@writefile{lof}{\addvspace {10\p@ }}
\@writefile{lot}{\addvspace {10\p@ }}
\@writefile{lol}{\addvspace {10\p@ }}
\@writefile{toc}{\contentsline {section}{\numberline {2.1}Introduction to simulations of supercooled water}{17}{section.2.1}\protected@file@percent }
\@writefile{toc}{\contentsline {section}{\numberline {2.2}Overview of used methods of computational geometry}{17}{section.2.2}\protected@file@percent }
\@writefile{toc}{\contentsline {subsection}{\nonumberline Delaunay triangulation}{17}{section*.3}\protected@file@percent }
\@writefile{toc}{\contentsline {subsection}{\nonumberline Periodic boundary conditions}{17}{section*.4}\protected@file@percent }
\citation{tetrahedron}
\citation{facearea}
\citation{asphericity}
\citation{char}
\citation{asph1}
\citation{asph2}
\citation{asph3}
\citation{char}
\citation{circumsphere}
\citation{circumcenter}
\@writefile{toc}{\contentsline {section}{\numberline {2.3}Overview of used structural parameters}{18}{section.2.3}\protected@file@percent }
\@writefile{toc}{\contentsline {subsection}{\nonumberline Tetrahedron characteristics}{18}{section*.5}\protected@file@percent }
\citation{tetrahedron}
\citation{insphere}
\citation{tetrahedron}
\citation{tetrahedron}
\citation{lsi}
\citation{dfs}
\@writefile{toc}{\contentsline {subsection}{\nonumberline Local structure index}{19}{section*.6}\protected@file@percent }
\citation{rstat}
\citation{rdata}
\citation{rpop}
\citation{shiny}
\citation{shinyStruc}
\@writefile{toc}{\contentsline {subsection}{\nonumberline Distance between first and second shell}{20}{section*.7}\protected@file@percent }
\@writefile{toc}{\contentsline {section}{\numberline {2.4}R software environment and Shiny package summary}{20}{section.2.4}\protected@file@percent }
\@writefile{toc}{\contentsline {subsection}{\nonumberline R}{20}{section*.8}\protected@file@percent }
\@writefile{toc}{\contentsline {subsection}{\nonumberline Shiny}{20}{section*.9}\protected@file@percent }
\@writefile{toc}{\contentsline {chapter}{\numberline {3}Practice}{21}{chapter.3}\protected@file@percent }
\@writefile{lof}{\addvspace {10\p@ }}
\@writefile{lot}{\addvspace {10\p@ }}
\@writefile{lol}{\addvspace {10\p@ }}
\@writefile{toc}{\contentsline {section}{\numberline {3.1}Defining and processing input data}{21}{section.3.1}\protected@file@percent }
\@writefile{toc}{\contentsline {section}{\numberline {3.2}Structural analysis}{21}{section.3.2}\protected@file@percent }
\@writefile{toc}{\contentsline {subsection}{\nonumberline 3D Delaunay triangulation in periodic border criteria}{21}{section*.10}\protected@file@percent }
\@writefile{toc}{\contentsline {subsection}{\nonumberline Separating data into chunks}{22}{section*.11}\protected@file@percent }
\@writefile{toc}{\contentsline {section}{\numberline {3.3}Results visualization}{24}{section.3.3}\protected@file@percent }
\@writefile{toc}{\contentsline {section}{\numberline {3.4}Interactive animation}{24}{section.3.4}\protected@file@percent }
\@writefile{toc}{\contentsline {subsection}{\nonumberline Interactive web app}{24}{section*.12}\protected@file@percent }
\@writefile{toc}{\contentsline {subsection}{\nonumberline Animation}{24}{section*.13}\protected@file@percent }
\@writefile{toc}{\contentsline {chapter}{\numberline {4}Results evaluation}{25}{chapter.4}\protected@file@percent }
\@writefile{lof}{\addvspace {10\p@ }}
\@writefile{lot}{\addvspace {10\p@ }}
\@writefile{lol}{\addvspace {10\p@ }}
\@writefile{toc}{\contentsline {chapter}{\numberline {5}Conclusion}{27}{chapter.5}\protected@file@percent }
\@writefile{lof}{\addvspace {10\p@ }}
\@writefile{lot}{\addvspace {10\p@ }}
\@writefile{lol}{\addvspace {10\p@ }}
\bibcite{qOrig}{1}
\bibcite{qRescale}{2}
\bibcite{q6}{3}
\bibcite{q6val}{4}
\bibcite{trian}{5}
\bibcite{simplex}{6}
\bibcite{delaunay}{7}
\bibcite{skvarabp}{8}
\bibcite{monteCarlo}{9}
\@writefile{toc}{\contentsline {chapter}{\nonumberline Bibliography}{29}{chapter*.14}\protected@file@percent }
\@writefile{lof}{\addvspace {10\p@ }}
\@writefile{lot}{\addvspace {10\p@ }}
\@writefile{lol}{\addvspace {10\p@ }}
\bibcite{circumsphere}{10}
\bibcite{circumcenter}{11}
\bibcite{insphere}{12}
\bibcite{tetrahedron}{13}
\bibcite{facearea}{14}
\bibcite{asphericity}{15}
\bibcite{rdata}{16}
\bibcite{rstat}{17}
\bibcite{rpop}{18}
\bibcite{char}{19}
\bibcite{asph1}{20}
\bibcite{asph2}{21}
\bibcite{asph3}{22}
\bibcite{lsi}{23}
\bibcite{dfs}{24}
\bibcite{shinyStruc}{25}
\bibcite{structure}{26}
\bibcite{genMethod}{27}
\bibcite{r}{28}
\bibcite{shiny}{29}
\@writefile{toc}{\contentsline {chapter}{\numberline {A}Contents of included CD}{35}{appendix.A}\protected@file@percent }
\@writefile{lof}{\addvspace {10\p@ }}
\@writefile{lot}{\addvspace {10\p@ }}
\@writefile{lol}{\addvspace {10\p@ }}
\global\csname @altsecnumformattrue\endcsname
\global\@namedef{scr@dte@chapter@lastmaxnumwidth}{16.16393pt}
\global\@namedef{scr@dte@section@lastmaxnumwidth}{21.23993pt}
